01 Electrical & Electronics/01 Oscilloscope Data Manipulation/tek0005ALL.csv

Model,MDO3012
Firmware Version,1.26

Waveform Type,ANALOG,
Point Format,Y,
Horizontal Units,s,
Horizontal Scale,0.002,
Horizontal Delay,0,
Sample Interval,2e-05,
Record Length,1000,
Gating,0.1% to 100.0%,
Probe Attenuation,10,10
Vertical Units,V,V
Vertical Offset,0,0
Vertical Scale,2,0.5
Vertical Position,-1.96,-2.96
,,
,,
,,
Label,,
TIME,CH1,CH2
-1.000e-02,6.74344,2.52211
-9.980e-03,7.03781,2.51789
-9.960e-03,7.33062,2.52203
-9.940e-03,7.60187,2.51953
-9.920e-03,7.84656,2.52422
-9.900e-03,8.12375,2.52352
-9.880e-03,8.35187,2.53039
-9.860e-03,8.58344,2.52742
-9.840e-03,8.79375,2.53023
-9.820e-03,8.97469,2.52797
-9.800e-03,9.1225,2.53016
-9.780e-03,9.28156,2.53273
-9.760e-03,9.41719,2.53867
-9.740e-03,9.5525,2.53688
-9.720e-03,9.64719,2.53906
-9.700e-03,9.74625,2.54133
-9.680e-03,9.81594,2.54242
-9.660e-03,9.88031,2.53766
-9.640e-03,9.88906,2.54391
-9.620e-03,9.90031,2.54492
-9.600e-03,9.89438,2.54555
-9.580e-03,9.86969,2.54773
-9.560e-03,9.80906,2.54953
-9.540e-03,9.74656,2.54758
-9.520e-03,9.65406,2.5507
-9.500e-03,9.55969,2.54992
-9.480e-03,9.43,2.55844
-9.460e-03,9.27219,2.55227
-9.440e-03,9.12125,2.55086
-9.420e-03,8.97813,2.56023
-9.400e-03,8.78031,2.56102
-9.380e-03,8.58875,2.55906
-9.360e-03,8.35625,2.55891
-9.340e-03,8.11656,2.55477
-9.320e-03,7.86656,2.55695
-9.300e-03,7.59938,2.55961
-9.280e-03,7.3275,2.55875
-9.260e-03,7.0525,2.55719
-9.240e-03,6.74719,2.55812
-9.220e-03,6.46312,2.55805
-9.200e-03,6.1825,2.56055
-9.180e-03,5.85313,2.55687
-9.160e-03,5.54656,2.55914
-9.140e-03,5.22281,2.55578
-9.120e-03,4.90688,2.55391
-9.100e-03,4.585,2.5568
-9.080e-03,4.27531,2.55563
-9.060e-03,4.00906,2.55219
-9.040e-03,3.73125,2.54789
-9.020e-03,3.46031,2.55117
-9.000e-03,3.14469,2.54695
-8.980e-03,2.86875,2.51102
-8.960e-03,2.575,2.3282
-8.940e-03,2.30563,2.08391
-8.920e-03,2.04906,1.84461
-8.900e-03,1.8025,1.61844
-8.880e-03,1.56719,1.41273
-8.860e-03,1.34281,1.20383
-8.840e-03,1.15781,1.00961
-8.820e-03,0.969062,0.832969
-8.800e-03,0.785,0.672031
-8.780e-03,0.600625,0.518984
-8.760e-03,0.46125,0.386016
-8.740e-03,0.3425,0.271953
-8.720e-03,0.224063,0.183047
-8.700e-03,0.149687,0.103984
-8.680e-03,0.0709375,0.0447656
-8.660e-03,0.01625,-0.00523438
-8.640e-03,-0.0128125,-0.0260938
-8.620e-03,0.0009375,-0.0347656
-8.600e-03,0.00875,-0.0219531
-8.580e-03,0.041875,0.00453125
-8.560e-03,0.0709375,0.054375
-8.540e-03,0.138437,0.124531
-8.520e-03,0.22375,0.201094
-8.500e-03,0.342187,0.291016
-8.480e-03,0.464375,0.412266
-8.460e-03,0.6175,0.545
-8.440e-03,0.784687,0.702656
-8.420e-03,0.970312,0.863516
-8.400e-03,1.16281,1.04086
-8.380e-03,1.33875,1.24039
-8.360e-03,1.55594,1.43547
-8.340e-03,1.79281,1.64133
-8.320e-03,2.06219,1.86563
-8.300e-03,2.32406,2.10547
-8.280e-03,2.57313,2.34266
-8.260e-03,2.87531,2.52445
-8.240e-03,3.14375,2.55008
-8.220e-03,3.46094,2.53398
-8.200e-03,3.73531,2.53578
-8.180e-03,4.0025,2.52945
-8.160e-03,4.28594,2.51766
-8.140e-03,4.61344,2.51852
-8.120e-03,4.89562,2.51578
-8.100e-03,5.21937,2.51438
-8.080e-03,5.54438,2.51617
-8.060e-03,5.86906,2.51945
-8.040e-03,6.17094,2.51609
-8.020e-03,6.4675,2.52047
-8.000e-03,6.75281,2.51859
-7.980e-03,7.04562,2.51266
-7.960e-03,7.34812,2.52336
-7.940e-03,7.60406,2.52055
-7.920e-03,7.86375,2.52594
-7.900e-03,8.10719,2.52703
-7.880e-03,8.3425,2.52383
-7.860e-03,8.58188,2.52586
-7.840e-03,8.7925,2.52922
-7.820e-03,8.97531,2.53055
-7.800e-03,9.12219,2.53211
-7.780e-03,9.29531,2.52914
-7.760e-03,9.42406,2.53383
-7.740e-03,9.54125,2.53336
-7.720e-03,9.65594,2.54055
-7.700e-03,9.74219,2.53688
-7.680e-03,9.82125,2.54211
-7.660e-03,9.86313,2.54297
-7.640e-03,9.91,2.54008
-7.620e-03,9.91563,2.54406
-7.600e-03,9.9,2.54766
-7.580e-03,9.87344,2.54734
-7.560e-03,9.82688,2.555
-7.540e-03,9.73469,2.55211
-7.520e-03,9.64438,2.55141
-7.500e-03,9.55594,2.54898
-7.480e-03,9.44219,2.55211
-7.460e-03,9.26656,2.55539
-7.440e-03,9.12531,2.55727
-7.420e-03,8.9825,2.55727
-7.400e-03,8.78,2.55336
-7.380e-03,8.59906,2.55664
-7.360e-03,8.36,2.55914
-7.340e-03,8.12438,2.55883
-7.320e-03,7.87719,2.55852
-7.300e-03,7.60531,2.555
-7.280e-03,7.32344,2.55672
-7.260e-03,7.04156,2.56125
-7.240e-03,6.75687,2.56117
-7.220e-03,6.45375,2.56117
-7.200e-03,6.18031,2.55914
-7.180e-03,5.85938,2.55836
-7.160e-03,5.53844,2.56039
-7.140e-03,5.23188,2.5593
-7.120e-03,4.90813,2.55602
-7.100e-03,4.60375,2.55633
-7.080e-03,4.285,2.55094
-7.060e-03,3.99875,2.55164
-7.040e-03,3.74094,2.54672
-7.020e-03,3.45562,2.54633
-7.000e-03,3.1425,2.54672
-6.980e-03,2.85625,2.50648
-6.960e-03,2.58594,2.32656
-6.940e-03,2.31,2.08359
-6.920e-03,2.05781,1.84789
-6.900e-03,1.79,1.61414
-6.880e-03,1.55625,1.40781
-6.860e-03,1.34937,1.20453
-6.840e-03,1.15062,1.01266
-6.820e-03,0.940312,0.831328
-6.800e-03,0.785312,0.670391
-6.780e-03,0.626875,0.522187
-6.760e-03,0.46375,0.385312
-6.740e-03,0.319687,0.277578
-6.720e-03,0.233437,0.182109
-6.700e-03,0.137812,0.109141
-6.680e-03,0.084375,0.0436719
-6.660e-03,0.0196875,-0.0046875
-6.640e-03,-0.00625,-0.0283594
-6.620e-03,-0.00625,-0.0310938
-6.600e-03,-0.0075,-0.0164062
-6.580e-03,0.0246875,0.00632813
-6.560e-03,0.0796875,0.0557031
-6.540e-03,0.1625,0.117812
-6.520e-03,0.248125,0.199766
-6.500e-03,0.316562,0.297734
-6.480e-03,0.469062,0.415703
-6.460e-03,0.611875,0.545781
-6.440e-03,0.787812,0.698437
-6.420e-03,0.961875,0.865781
-6.400e-03,1.16219,1.04656
-6.380e-03,1.34781,1.23539
-6.360e-03,1.55125,1.43383
-6.340e-03,1.77594,1.63813
-6.320e-03,2.05,1.86758
-6.300e-03,2.31656,2.10031
-6.280e-03,2.6,2.33422
-6.260e-03,2.86781,2.51422
-6.240e-03,3.15594,2.54609
-6.220e-03,3.45125,2.53891
-6.200e-03,3.72594,2.53492
-6.180e-03,3.99125,2.52141
-6.160e-03,4.27313,2.52227
-6.140e-03,4.60938,2.52234
-6.120e-03,4.90188,2.51875
-6.100e-03,5.22375,2.51906
-6.080e-03,5.52875,2.51938
-6.060e-03,5.85344,2.51406
-6.040e-03,6.16563,2.52281
-6.020e-03,6.46625,2.51828
-6.000e-03,6.76219,2.5175
-5.980e-03,7.02937,2.52438
-5.960e-03,7.34844,2.51922
-5.940e-03,7.61937,2.52344
-5.920e-03,7.87,2.52422
-5.900e-03,8.11313,2.52141
-5.880e-03,8.36344,2.52648
-5.860e-03,8.59437,2.52516
-5.840e-03,8.78844,2.52836
-5.820e-03,8.9775,2.52914
-5.800e-03,9.11781,2.53094
-5.780e-03,9.2725,2.53609
-5.760e-03,9.42406,2.53062
-5.740e-03,9.54125,2.53609
-5.720e-03,9.65781,2.53734
-5.700e-03,9.73906,2.54328
-5.680e-03,9.81312,2.545
-5.660e-03,9.85875,2.54148
-5.640e-03,9.905,2.54555
-5.620e-03,9.9125,2.54125
-5.600e-03,9.92219,2.54633
-5.580e-03,9.86969,2.54055
-5.560e-03,9.81781,2.55023
-5.540e-03,9.75812,2.55375
-5.520e-03,9.66688,2.55023
-5.500e-03,9.54406,2.55367
-5.480e-03,9.41469,2.55375
-5.460e-03,9.27531,2.55422
-5.440e-03,9.13281,2.55898
-5.420e-03,8.97281,2.55367
-5.400e-03,8.7725,2.55563
-5.380e-03,8.57656,2.55555
-5.360e-03,8.35438,2.55953
-5.340e-03,8.11562,2.5593
-5.320e-03,7.85375,2.55664
-5.300e-03,7.60656,2.56344
-5.280e-03,7.32125,2.55875
-5.260e-03,7.03562,2.56023
-5.240e-03,6.75719,2.56039
-5.220e-03,6.46594,2.56383
-5.200e-03,6.16625,2.55812
-5.180e-03,5.85656,2.55938
-5.160e-03,5.54937,2.55812
-5.140e-03,5.22969,2.55742
-5.120e-03,4.92625,2.56156
-5.100e-03,4.60313,2.55289
-5.080e-03,4.29188,2.55367
-5.060e-03,3.99656,2.55492
-5.040e-03,3.72625,2.55656
-5.020e-03,3.45469,2.55078
-5.000e-03,3.14656,2.54203
-4.980e-03,2.86344,2.50844
-4.960e-03,2.58094,2.32891
-4.940e-03,2.31562,2.0832
-4.920e-03,2.05375,1.84766
-4.900e-03,1.81219,1.60883
-4.880e-03,1.55687,1.40695
-4.860e-03,1.34375,1.20648
-4.840e-03,1.15094,1.01156
-4.820e-03,0.950625,0.832187
-4.800e-03,0.775313,0.668984
-4.780e-03,0.610313,0.519687
-4.760e-03,0.465625,0.383203
-4.740e-03,0.3325,0.275234
-4.720e-03,0.235937,0.179688
-4.700e-03,0.1375,0.107187
-4.680e-03,0.0746875,0.0469531
-4.660e-03,0.02,-0.000703125
-4.640e-03,0.0065625,-0.0288281
-4.620e-03,-0.0109375,-0.0332031
-4.600e-03,-0.00625,-0.0204688
-4.580e-03,0.0228125,0.005
-4.560e-03,0.06,0.0507031
-4.540e-03,0.1325,0.118125
-4.520e-03,0.244687,0.198125
-4.500e-03,0.346875,0.294766
-4.480e-03,0.466875,0.409297
-4.460e-03,0.6175,0.547031
-4.440e-03,0.77875,0.701797
-4.420e-03,0.951563,0.860469
-4.400e-03,1.1425,1.04602
-4.380e-03,1.34437,1.2368
-4.360e-03,1.54281,1.43023
-4.340e-03,1.79438,1.63906
-4.320e-03,2.0625,1.86906
-4.300e-03,2.31906,2.10234
-4.280e-03,2.5825,2.33445
-4.260e-03,2.85719,2.51703
-4.240e-03,3.14219,2.54742
-4.220e-03,3.4425,2.5382
-4.200e-03,3.74562,2.53563
-4.180e-03,3.99531,2.52875
-4.160e-03,4.29594,2.52289
-4.140e-03,4.60562,2.52344
-4.120e-03,4.92063,2.52055
-4.100e-03,5.22469,2.52266
-4.080e-03,5.53313,2.52406
-4.060e-03,5.85656,2.51656
-4.040e-03,6.16531,2.51703
-4.020e-03,6.46469,2.5168
-4.000e-03,6.74156,2.5243
-3.980e-03,7.03187,2.52164
-3.960e-03,7.33625,2.52258
-3.940e-03,7.59969,2.52234
-3.920e-03,7.87344,2.51766
-3.900e-03,8.12312,2.52602
-3.880e-03,8.36688,2.52539
-3.860e-03,8.58906,2.52836
-3.840e-03,8.77844,2.52594
-3.820e-03,8.98438,2.53008
-3.800e-03,9.12937,2.53195
-3.780e-03,9.28562,2.53203
-3.760e-03,9.42219,2.53797
-3.740e-03,9.54594,2.53758
-3.720e-03,9.65625,2.53891
-3.700e-03,9.75875,2.54086
-3.680e-03,9.81156,2.54141
-3.660e-03,9.88563,2.54414
-3.640e-03,9.89594,2.54594
-3.620e-03,9.90219,2.54586
-3.600e-03,9.90656,2.54742
-3.580e-03,9.87531,2.54586
-3.560e-03,9.81438,2.54812
-3.540e-03,9.73625,2.55461
-3.520e-03,9.65375,2.5507
-3.500e-03,9.5475,2.5475
-3.480e-03,9.4125,2.54977
-3.460e-03,9.2925,2.5557
-3.440e-03,9.12094,2.56266
-3.420e-03,8.97594,2.56039
-3.400e-03,8.79031,2.55711
-3.380e-03,8.58875,2.55727
-3.360e-03,8.35625,2.56234
-3.340e-03,8.11875,2.55875
-3.320e-03,7.85688,2.5568
-3.300e-03,7.60688,2.56141
-3.280e-03,7.32969,2.55828
-3.260e-03,7.0475,2.56094
-3.240e-03,6.75594,2.55711
-3.220e-03,6.47531,2.55828
-3.200e-03,6.185,2.55586
-3.180e-03,5.85313,2.55547
-3.160e-03,5.53906,2.55641
-3.140e-03,5.21875,2.55602
-3.120e-03,4.90313,2.55523
-3.100e-03,4.58188,2.55867
-3.080e-03,4.28719,2.55281
-3.060e-03,3.98969,2.55578
-3.040e-03,3.74063,2.54828
-3.020e-03,3.45906,2.54711
-3.000e-03,3.17031,2.54461
-2.980e-03,2.86094,2.50945
-2.960e-03,2.59187,2.33125
-2.940e-03,2.30687,2.07961
-2.920e-03,2.05406,1.84195
-2.900e-03,1.79219,1.61422
-2.880e-03,1.56906,1.40867
-2.860e-03,1.35,1.20219
-2.840e-03,1.16031,1.01016
-2.820e-03,0.950625,0.832187
-2.800e-03,0.784687,0.669375
-2.780e-03,0.613437,0.520156
-2.760e-03,0.464375,0.3875
-2.740e-03,0.34375,0.273828
-2.720e-03,0.229687,0.18
-2.700e-03,0.140625,0.105859
-2.680e-03,0.075625,0.0433594
-2.660e-03,0.0378125,-0.00046875
-2.640e-03,-0.011875,-0.0278906
-2.620e-03,-0.010625,-0.0398437
-2.600e-03,0.001875,-0.025625
-2.580e-03,0.0221875,0.008125
-2.560e-03,0.0678125,0.0552344
-2.540e-03,0.146875,0.12
-2.520e-03,0.21625,0.203281
-2.500e-03,0.333125,0.289922
-2.480e-03,0.458438,0.419297
-2.460e-03,0.60125,0.550156
-2.440e-03,0.77875,0.696797
-2.420e-03,0.940625,0.862344
-2.400e-03,1.14844,1.0468
-2.380e-03,1.36531,1.23281
-2.360e-03,1.56312,1.4318
-2.340e-03,1.79062,1.64531
-2.320e-03,2.05312,1.86961
-2.300e-03,2.31031,2.10328
-2.280e-03,2.60531,2.33906
-2.260e-03,2.85719,2.52141
-2.240e-03,3.16312,2.54391
-2.220e-03,3.455,2.53969
-2.200e-03,3.73188,2.53352
-2.180e-03,3.99812,2.52516
-2.160e-03,4.2825,2.51984
-2.140e-03,4.59375,2.52336
-2.120e-03,4.91219,2.51953
-2.100e-03,5.22031,2.52047
-2.080e-03,5.53281,2.51484
-2.060e-03,5.85313,2.51602
-2.040e-03,6.17344,2.51633
-2.020e-03,6.46094,2.52
-2.000e-03,6.75062,2.52
-1.980e-03,7.05813,2.52375
-1.960e-03,7.32406,2.52391
-1.940e-03,7.61031,2.52133
-1.920e-03,7.85812,2.53094
-1.900e-03,8.10187,2.52633
-1.880e-03,8.3675,2.52422
-1.860e-03,8.58344,2.5275
-1.840e-03,8.79312,2.52531
-1.820e-03,8.96312,2.52937
-1.800e-03,9.1175,2.53133
-1.780e-03,9.27594,2.53266
-1.760e-03,9.41531,2.53313
-1.740e-03,9.56438,2.53625
-1.720e-03,9.67906,2.53773
-1.700e-03,9.75094,2.54094
-1.680e-03,9.82094,2.54203
-1.660e-03,9.87156,2.54508
-1.640e-03,9.90875,2.53891
-1.620e-03,9.90687,2.54656
-1.600e-03,9.9025,2.54695
-1.580e-03,9.87844,2.5518
-1.560e-03,9.82156,2.55156
-1.540e-03,9.75906,2.55266
-1.520e-03,9.64281,2.55648
-1.500e-03,9.54563,2.55187
-1.480e-03,9.43125,2.55203
-1.460e-03,9.28875,2.55344
-1.440e-03,9.12781,2.55141
-1.420e-03,8.97438,2.55516
-1.400e-03,8.79281,2.55508
-1.380e-03,8.57281,2.55687
-1.360e-03,8.35906,2.55828
-1.340e-03,8.10813,2.55719
-1.320e-03,7.86656,2.56305
-1.300e-03,7.60406,2.55648
-1.280e-03,7.34344,2.55992
-1.260e-03,7.05063,2.55961
-1.240e-03,6.75,2.5593
-1.220e-03,6.46781,2.55844
-1.200e-03,6.16531,2.55711
-1.180e-03,5.86906,2.56141
-1.160e-03,5.53531,2.55992
-1.140e-03,5.23062,2.55687
-1.120e-03,4.91812,2.5575
-1.100e-03,4.59875,2.55703
-1.080e-03,4.28531,2.55594
-1.060e-03,3.98625,2.55359
-1.040e-03,3.73937,2.54492
-1.020e-03,3.43687,2.54859
-1.000e-03,3.14969,2.55195
-9.800e-04,2.85438,2.51008
-9.600e-04,2.57812,2.33078
-9.400e-04,2.31406,2.08781
-9.200e-04,2.04125,1.83828
-9.000e-04,1.80219,1.61141
-8.800e-04,1.55531,1.40523
-8.600e-04,1.33,1.20602
-8.400e-04,1.15281,1.01133
-8.200e-04,0.947812,0.833359
-8.000e-04,0.77875,0.671328
-7.800e-04,0.61,0.523281
-7.600e-04,0.458125,0.386875
-7.400e-04,0.346562,0.276016
-7.200e-04,0.244063,0.185312
-7.000e-04,0.13625,0.105625
-6.800e-04,0.06,0.0432812
-6.600e-04,0.0271875,-0.00601563
-6.400e-04,-0.0059375,-0.0303125
-6.200e-04,-0.0178125,-0.035
-6.000e-04,0.0025,-0.0241406
-5.800e-04,0.0315625,0.00773437
-5.600e-04,0.0815625,0.0572656
-5.400e-04,0.131875,0.120156
-5.200e-04,0.23,0.198281
-5.000e-04,0.330937,0.290312
-4.800e-04,0.465,0.411641
-4.600e-04,0.605625,0.547812
-4.400e-04,0.793125,0.703516
-4.200e-04,0.962187,0.859453
-4.000e-04,1.14281,1.04094
-3.800e-04,1.35062,1.23664
-3.600e-04,1.56375,1.43344
-3.400e-04,1.79312,1.63953
-3.200e-04,2.05781,1.86555
-3.000e-04,2.32812,2.09953
-2.800e-04,2.59563,2.33516
-2.600e-04,2.86687,2.51773
-2.400e-04,3.14938,2.54539
-2.200e-04,3.44906,2.53336
-2.000e-04,3.74781,2.53148
-1.800e-04,3.97812,2.52414
-1.600e-04,4.30219,2.52672
-1.400e-04,4.60687,2.52211
-1.200e-04,4.90781,2.51703
-1.000e-04,5.22969,2.51914
-8.000e-05,5.53406,2.52148
-6.000e-05,5.87156,2.51859
-4.000e-05,6.17531,2.52055
-2.000e-05,6.4725,2.51313
-0.000e+00,6.7425,2.51641
2.000e-05,7.04813,2.52008
4.000e-05,7.34094,2.52445
6.000e-05,7.60781,2.52445
8.000e-05,7.87438,2.52141
1.000e-04,8.11656,2.52789
1.200e-04,8.35625,2.52391
1.400e-04,8.58875,2.52766
1.600e-04,8.79437,2.52805
1.800e-04,8.96469,2.53602
2.000e-04,9.13031,2.53
2.200e-04,9.27719,2.53273
2.400e-04,9.44594,2.53477
2.600e-04,9.55656,2.53414
2.800e-04,9.65844,2.54008
3.000e-04,9.76156,2.54258
3.200e-04,9.81594,2.54281
3.400e-04,9.87094,2.54422
3.600e-04,9.90625,2.54602
3.800e-04,9.91219,2.54547
4.000e-04,9.89937,2.55094
4.200e-04,9.86156,2.54594
4.400e-04,9.80906,2.55172
4.600e-04,9.74375,2.55125
4.800e-04,9.65188,2.55055
5.000e-04,9.55625,2.54977
5.200e-04,9.42125,2.55242
5.400e-04,9.26375,2.55484
5.600e-04,9.10875,2.55172
5.800e-04,8.97781,2.55977
6.000e-04,8.77656,2.55859
6.200e-04,8.58656,2.56094
6.400e-04,8.35281,2.56203
6.600e-04,8.11531,2.55742
6.800e-04,7.85656,2.55531
7.000e-04,7.61281,2.56258
7.200e-04,7.33062,2.55687
7.400e-04,7.04,2.56023
7.600e-04,6.75062,2.56172
7.800e-04,6.47281,2.56047
8.000e-04,6.15969,2.56062
8.200e-04,5.86906,2.56266
8.400e-04,5.54469,2.56273
8.600e-04,5.22719,2.55945
8.800e-04,4.91563,2.55711
9.000e-04,4.59812,2.55539
9.200e-04,4.27438,2.55461
9.400e-04,3.99844,2.55531
9.600e-04,3.7425,2.55195
9.800e-04,3.45281,2.5457
1.000e-03,3.16312,2.54477
1.020e-03,2.85969,2.50734
1.040e-03,2.59469,2.32703
1.060e-03,2.32437,2.08539
1.080e-03,2.04812,1.84766
1.100e-03,1.79937,1.61195
1.120e-03,1.55781,1.40477
1.140e-03,1.34844,1.20992
1.160e-03,1.16594,1.01633
1.180e-03,0.962813,0.835547
1.200e-03,0.782188,0.675078
1.220e-03,0.611562,0.518828
1.240e-03,0.467187,0.385859
1.260e-03,0.34625,0.27875
1.280e-03,0.23125,0.186953
1.300e-03,0.133437,0.107734
1.320e-03,0.0865625,0.043125
1.340e-03,0.021875,-0.00585938
1.360e-03,-0.00875,-0.0282031
1.380e-03,-0.0025,-0.0375
1.400e-03,-0.0071875,-0.0246094
1.420e-03,0.035625,0.00359375
1.440e-03,0.0828125,0.0561719
1.460e-03,0.150313,0.121094
1.480e-03,0.237812,0.203359
1.500e-03,0.340937,0.295
1.520e-03,0.45625,0.410469
1.540e-03,0.622812,0.550234
1.560e-03,0.78375,0.701641
1.580e-03,0.946875,0.861641
1.600e-03,1.15344,1.04164
1.620e-03,1.34469,1.24016
1.640e-03,1.55375,1.43211
1.660e-03,1.80687,1.64367
1.680e-03,2.05406,1.86445
1.700e-03,2.31094,2.09922
1.720e-03,2.57625,2.33234
1.740e-03,2.86719,2.52336
1.760e-03,3.15813,2.54508
1.780e-03,3.4525,2.54188
1.800e-03,3.73469,2.52937
1.820e-03,3.99125,2.52562
1.840e-03,4.28625,2.52664
1.860e-03,4.59344,2.5193
1.880e-03,4.92219,2.51977
1.900e-03,5.23813,2.52094
1.920e-03,5.54906,2.51922
1.940e-03,5.86531,2.51562
1.960e-03,6.17437,2.52203
1.980e-03,6.45594,2.51953
2.000e-03,6.75938,2.52266
2.020e-03,7.04063,2.52234
2.040e-03,7.33875,2.51703
2.060e-03,7.60375,2.51781
2.080e-03,7.85812,2.52375
2.100e-03,8.11781,2.52305
2.120e-03,8.36375,2.52297
2.140e-03,8.57875,2.52227
2.160e-03,8.78063,2.52844
2.180e-03,8.98313,2.53406
2.200e-03,9.12312,2.52953
2.220e-03,9.26875,2.53703
2.240e-03,9.43156,2.54039
2.260e-03,9.55156,2.53453
2.280e-03,9.65437,2.53883
2.300e-03,9.73719,2.53672
2.320e-03,9.82562,2.53773
2.340e-03,9.86094,2.53859
2.360e-03,9.90844,2.54312
2.380e-03,9.88812,2.54531
2.400e-03,9.90844,2.55055
2.420e-03,9.87531,2.54852
2.440e-03,9.80719,2.54992
2.460e-03,9.75313,2.55039
2.480e-03,9.65281,2.55531
2.500e-03,9.54719,2.55672
2.520e-03,9.41344,2.55336
2.540e-03,9.27313,2.55375
2.560e-03,9.14,2.55805
2.580e-03,8.98031,2.55344
2.600e-03,8.81031,2.55883
2.620e-03,8.57313,2.55961
2.640e-03,8.36313,2.56023
2.660e-03,8.11688,2.56391
2.680e-03,7.87125,2.55617
2.700e-03,7.60531,2.56094
2.720e-03,7.32687,2.55922
2.740e-03,7.03875,2.55805
2.760e-03,6.74656,2.55969
2.780e-03,6.45281,2.5607
2.800e-03,6.16219,2.56203
2.820e-03,5.85688,2.56164
2.840e-03,5.55563,2.55422
2.860e-03,5.2275,2.55578
2.880e-03,4.91219,2.55641
2.900e-03,4.58375,2.55328
2.920e-03,4.28219,2.55414
2.940e-03,3.99094,2.54766
2.960e-03,3.73,2.5543
2.980e-03,3.46406,2.54734
3.000e-03,3.14406,2.54961
3.020e-03,2.85219,2.51313
3.040e-03,2.58312,2.32867
3.060e-03,2.30625,2.08586
3.080e-03,2.04719,1.84789
3.100e-03,1.79156,1.61023
3.120e-03,1.55375,1.41109
3.140e-03,1.35312,1.20703
3.160e-03,1.145,1.01242
3.180e-03,0.961875,0.830234
3.200e-03,0.791562,0.671562
3.220e-03,0.613437,0.524062
3.240e-03,0.47375,0.389141
3.260e-03,0.343437,0.276094
3.280e-03,0.231562,0.181797
3.300e-03,0.140312,0.110547
3.320e-03,0.079375,0.0477344
3.340e-03,0.0240625,-0.00140625
3.360e-03,0.0059375,-0.0240625
3.380e-03,0.0090625,-0.0310156
3.400e-03,0.0003125,-0.0252344
3.420e-03,0.033125,0.00851563
3.440e-03,0.08,0.0557031
3.460e-03,0.138437,0.125703
3.480e-03,0.229375,0.196562
3.500e-03,0.36,0.294375
3.520e-03,0.464375,0.408516
3.540e-03,0.6175,0.545234
3.560e-03,0.770625,0.701797
3.580e-03,0.955,0.860859
3.600e-03,1.14844,1.03672
3.620e-03,1.36281,1.23937
3.640e-03,1.56594,1.43641
3.660e-03,1.79469,1.64828
3.680e-03,2.03437,1.87422
3.700e-03,2.30906,2.10438
3.720e-03,2.57687,2.33859
3.740e-03,2.87281,2.52359
3.760e-03,3.15594,2.54664
3.780e-03,3.44906,2.54055
3.800e-03,3.74875,2.53227
3.820e-03,3.98594,2.52953
3.840e-03,4.27375,2.52453
3.860e-03,4.60187,2.51555
3.880e-03,4.915,2.51656
3.900e-03,5.21937,2.5125
3.920e-03,5.53625,2.51766
3.940e-03,5.86562,2.51938
3.960e-03,6.18156,2.5175
3.980e-03,6.46844,2.5157
4.000e-03,6.75156,2.51828
4.020e-03,7.04375,2.52586
4.040e-03,7.32406,2.52133
4.060e-03,7.60844,2.51852
4.080e-03,7.89469,2.52352
4.100e-03,8.11906,2.52766
4.120e-03,8.36437,2.52125
4.140e-03,8.5925,2.52609
4.160e-03,8.79125,2.52547
4.180e-03,8.97125,2.52695
4.200e-03,9.13063,2.53023
4.220e-03,9.28625,2.5307
4.240e-03,9.42375,2.53344
4.260e-03,9.54906,2.53531
4.280e-03,9.67156,2.53484
4.300e-03,9.7525,2.54156
4.320e-03,9.8225,2.54516
4.340e-03,9.87125,2.54273
4.360e-03,9.91344,2.54633
4.380e-03,9.91375,2.5418
4.400e-03,9.90844,2.54766
4.420e-03,9.87562,2.55016
4.440e-03,9.82937,2.54953
4.460e-03,9.75531,2.55133
4.480e-03,9.66125,2.55516
4.500e-03,9.5275,2.55359
4.520e-03,9.44438,2.55187
4.540e-03,9.29281,2.5582
4.560e-03,9.12375,2.55789
4.580e-03,8.97281,2.56234
